<svg width="286" height="136" viewBox="0 0 286 136" fill="none" xmlns="http://www.w3.org/2000/svg">
<path d="M53 128H8V8M83 38C94.9347 38 106.381 41.1607 114.82 46.7868C123.259 52.4129 128 60.0435 128 68V128H98C94.0218 128 90.2064 126.42 87.3934 123.607C84.5803 120.794 83 116.978 83 113C83 105.044 84.5803 97.4129 87.3934 91.7868C90.2064 86.1607 94.0218 83 98 83H128M158 8V98C158 105.956 162.741 113.587 171.18 119.213C179.619 124.839 191.065 128 203 128M158 38H203M233 8V98C233 105.956 237.741 113.587 246.18 119.213C254.619 124.839 266.065 128 278 128M233 38H278" stroke="black" stroke-width="15" stroke-linecap="round" stroke-linejoin="round"/>
</svg>
