<svg width="192" height="192" viewBox="0 0 192 192" fill="none" xmlns="http://www.w3.org/2000/svg">
<circle cx="96" cy="96" r="96" transform="rotate(-180 96 96)" fill="#3B2336"/>
<path fill-rule="evenodd" clip-rule="evenodd" d="M97.9572 150.224L46.5636 120.645V60.502L97.9572 30.9233L150.339 60.502L150.339 120.645L97.9572 150.224Z" fill="black"/>
<path fill-rule="evenodd" clip-rule="evenodd" d="M97.9572 150.224L46.5636 120.645V60.502L97.9572 30.9233L150.339 60.502L150.339 120.645L97.9572 150.224Z" fill="black"/>
<path fill-rule="evenodd" clip-rule="evenodd" d="M95.5914 44.8145L142.168 17.8492C167.499 35.8261 183.841 64.4256 185.476 97.1108C164.083 84.9692 142.691 72.4185 121.588 60.0377C112.866 54.9207 104.194 49.8327 95.5914 44.8145Z" fill="#462370"/>
<path fill-rule="evenodd" clip-rule="evenodd" d="M95.5914 44.8145L142.168 17.8492C167.499 35.8261 183.841 64.4256 185.476 97.1108C164.083 84.9692 142.691 72.4185 121.588 60.0377C112.866 54.9207 104.194 49.8327 95.5914 44.8145Z" fill="#462370"/>
<path fill-rule="evenodd" clip-rule="evenodd" d="M53.9178 120.808L6.52425 93.8423C9.79274 61.1571 27.7696 33.3747 53.9178 17.0321V120.808Z" fill="#7842B9"/>
<path fill-rule="evenodd" clip-rule="evenodd" d="M53.9178 120.808L6.52425 93.8423C9.79274 61.1571 27.7696 33.3747 53.9178 17.0321V120.808Z" fill="#7842B9"/>
<path fill-rule="evenodd" clip-rule="evenodd" d="M96.4086 145.321L49.8322 173.104C24.5011 155.127 8.15854 126.527 6.52428 93.8423C21.641 102.422 36.5535 111.002 51.466 119.582C66.3788 128.162 81.2915 136.742 96.4086 145.321Z" fill="#F6ACD5"/>
<path fill-rule="evenodd" clip-rule="evenodd" d="M96.4086 145.321L49.8322 173.104C24.5011 155.127 8.15854 126.527 6.52428 93.8423C21.641 102.422 36.5535 111.002 51.466 119.582C66.3788 128.162 81.2915 136.742 96.4086 145.321Z" fill="#F6ACD5"/>
<path fill-rule="evenodd" clip-rule="evenodd" d="M138.899 120.808L138.899 174.738C125.825 180.458 111.117 184.544 95.5914 184.544C79.2488 184.544 62.9062 180.458 49.015 172.287C78.4317 155.127 108.666 137.967 138.899 120.808Z" fill="#F581BF"/>
<path fill-rule="evenodd" clip-rule="evenodd" d="M138.899 120.808L138.899 174.738C125.825 180.458 111.117 184.544 95.5914 184.544C79.2488 184.544 62.9062 180.458 49.015 172.287C78.4317 155.127 108.666 137.967 138.899 120.808Z" fill="#F581BF"/>
<path fill-rule="evenodd" clip-rule="evenodd" d="M53.9178 70.9626L53.9178 17.0321C66.9919 10.495 81.7002 7.22651 96.4086 7.22651C113.568 7.22651 129.911 11.3122 143.802 18.6663C128.685 27.2462 113.773 36.0303 98.8602 44.8144C83.9475 53.5986 69.0348 62.3827 53.9178 70.9626Z" fill="#553083"/>
<path fill-rule="evenodd" clip-rule="evenodd" d="M53.9178 70.9626L53.9178 17.0321C66.9919 10.495 81.7002 7.22651 96.4086 7.22651C113.568 7.22651 129.911 11.3122 143.802 18.6663C128.685 27.2462 113.773 36.0303 98.8602 44.8144C83.9475 53.5986 69.0348 62.3827 53.9178 70.9626Z" fill="#553083"/>
<path fill-rule="evenodd" clip-rule="evenodd" d="M185.476 97.1108C183.024 128.979 165.047 157.578 138.899 173.921L138.899 70.1455L185.476 97.1108Z" fill="#CD5891"/>
<path fill-rule="evenodd" clip-rule="evenodd" d="M185.476 97.1108C183.024 128.979 165.047 157.578 138.899 173.921L138.899 70.1455L185.476 97.1108Z" fill="#CD5891"/>
<circle cx="96" cy="96" r="96" transform="rotate(-180 96 96)" fill="#3B2336" fill-opacity="0.6"/>
</svg>
